<mxfile host="app.diagrams.net" modified="2021-11-17T12:24:18.345Z" agent="5.0 (Macintosh; Intel Mac OS X 10_15_7) AppleWebKit/537.36 (KHTML, like Gecko) Chrome/94.0.4606.81 Safari/537.36" etag="xKSA6naZamgiHO8EdBjN" version="15.6.6" type="gitlab">
  <diagram id="tgCVukWs9foKZt5AVTCW" name="Page-1">
    <mxGraphModel dx="541" dy="351" grid="1" gridSize="10" guides="1" tooltips="1" connect="1" arrows="1" fold="1" page="1" pageScale="1" pageWidth="827" pageHeight="1169" math="0" shadow="0">
      <root>
        <mxCell id="0" />
        <mxCell id="1" parent="0" />
        <mxCell id="NNB8sEWWrY6CStLD5kaY-24" value="data contracts (aka profiles)" style="text;html=1;strokeColor=none;fillColor=none;align=center;verticalAlign=middle;whiteSpace=wrap;rounded=0;fontSize=10;fontColor=default;" parent="1" vertex="1">
          <mxGeometry x="40" y="280" width="320" height="30" as="geometry" />
        </mxCell>
        <mxCell id="NNB8sEWWrY6CStLD5kaY-42" value="" style="rounded=0;whiteSpace=wrap;html=1;dashed=1;labelBackgroundColor=default;fontSize=10;fontColor=default;strokeColor=default;fillColor=none;align=center;verticalAlign=middle;" parent="1" vertex="1">
          <mxGeometry x="245" y="40" width="90" height="190" as="geometry" />
        </mxCell>
        <mxCell id="NNB8sEWWrY6CStLD5kaY-10" value="" style="sketch=0;outlineConnect=0;fontColor=#232F3E;gradientColor=none;strokeColor=#FFFFFF;fillColor=#00BEF2;dashed=0;verticalLabelPosition=bottom;verticalAlign=top;align=center;html=1;fontSize=12;fontStyle=0;aspect=fixed;shape=mxgraph.aws4.resourceIcon;resIcon=mxgraph.aws4.queue;" parent="1" vertex="1">
          <mxGeometry x="157" y="113.5" width="70" height="70" as="geometry" />
        </mxCell>
        <mxCell id="NNB8sEWWrY6CStLD5kaY-1" value="data sources" style="shape=cylinder3;whiteSpace=wrap;html=1;boundedLbl=1;backgroundOutline=1;size=15;fillColor=#00BEF2;strokeColor=#FFFFFF;fontColor=#000000;" parent="1" vertex="1">
          <mxGeometry x="37" y="108.5" width="60" height="80" as="geometry" />
        </mxCell>
        <mxCell id="NNB8sEWWrY6CStLD5kaY-8" value="ingestion&lt;br&gt;(&lt;i&gt;&lt;b&gt;pub&lt;/b&gt;lish&lt;/i&gt;)" style="text;html=1;strokeColor=none;fillColor=none;align=center;verticalAlign=middle;whiteSpace=wrap;rounded=0;fontColor=default;" parent="1" vertex="1">
          <mxGeometry x="97" y="113.5" width="60" height="30" as="geometry" />
        </mxCell>
        <mxCell id="NNB8sEWWrY6CStLD5kaY-11" value="stream processing" style="text;html=1;strokeColor=none;fillColor=none;align=center;verticalAlign=middle;whiteSpace=wrap;rounded=0;fontColor=default;fontSize=11;" parent="1" vertex="1">
          <mxGeometry x="246" y="40" width="90" height="30" as="geometry" />
        </mxCell>
        <mxCell id="NNB8sEWWrY6CStLD5kaY-12" value="" style="verticalLabelPosition=bottom;html=1;verticalAlign=top;align=center;strokeColor=none;fillColor=#00BEF2;shape=mxgraph.azure.storage_blob;fontColor=default;" parent="1" vertex="1">
          <mxGeometry x="351" y="73" width="50" height="45" as="geometry" />
        </mxCell>
        <mxCell id="NNB8sEWWrY6CStLD5kaY-13" value="immutable&lt;br style=&quot;font-size: 10px;&quot;&gt;long term store" style="text;html=1;strokeColor=none;fillColor=none;align=center;verticalAlign=middle;whiteSpace=wrap;rounded=0;fontColor=default;fontSize=10;" parent="1" vertex="1">
          <mxGeometry x="331" y="118" width="90" height="30" as="geometry" />
        </mxCell>
        <mxCell id="NNB8sEWWrY6CStLD5kaY-14" value="" style="endArrow=classic;html=1;rounded=0;labelBackgroundColor=default;fontColor=default;strokeColor=default;exitX=1;exitY=0.5;exitDx=0;exitDy=0;exitPerimeter=0;" parent="1" source="NNB8sEWWrY6CStLD5kaY-1" edge="1">
          <mxGeometry width="50" height="50" relative="1" as="geometry">
            <mxPoint x="145" y="118.5" as="sourcePoint" />
            <mxPoint x="165" y="148.5" as="targetPoint" />
          </mxGeometry>
        </mxCell>
        <mxCell id="NNB8sEWWrY6CStLD5kaY-16" value="" style="endArrow=classic;html=1;rounded=0;labelBackgroundColor=default;fontColor=default;strokeColor=default;" parent="1" edge="1">
          <mxGeometry width="50" height="50" relative="1" as="geometry">
            <mxPoint x="220" y="147.5" as="sourcePoint" />
            <mxPoint x="260" y="200" as="targetPoint" />
          </mxGeometry>
        </mxCell>
        <mxCell id="NNB8sEWWrY6CStLD5kaY-17" value="materialised&lt;br style=&quot;font-size: 10px;&quot;&gt;views" style="shape=cylinder3;whiteSpace=wrap;html=1;boundedLbl=1;backgroundOutline=1;size=15;fillColor=#fff2cc;strokeColor=#d6b656;fontSize=10;fontColor=default;" parent="1" vertex="1">
          <mxGeometry x="351" y="160" width="60" height="80" as="geometry" />
        </mxCell>
        <mxCell id="NNB8sEWWrY6CStLD5kaY-21" value="&lt;i&gt;&lt;b&gt;sub&lt;/b&gt;scriptions&lt;/i&gt;" style="text;html=1;strokeColor=none;fillColor=none;align=center;verticalAlign=middle;whiteSpace=wrap;rounded=0;fontColor=default;" parent="1" vertex="1">
          <mxGeometry x="270" y="230" width="60" height="30" as="geometry" />
        </mxCell>
        <mxCell id="NNB8sEWWrY6CStLD5kaY-23" value="" style="shape=flexArrow;endArrow=classic;html=1;rounded=0;labelBackgroundColor=default;fontSize=10;fontColor=default;strokeColor=default;startArrow=block;exitX=0;exitY=1;exitDx=0;exitDy=0;" parent="1" edge="1" source="NNB8sEWWrY6CStLD5kaY-24">
          <mxGeometry width="50" height="50" relative="1" as="geometry">
            <mxPoint x="20" y="310" as="sourcePoint" />
            <mxPoint x="380" y="310" as="targetPoint" />
          </mxGeometry>
        </mxCell>
        <mxCell id="NNB8sEWWrY6CStLD5kaY-26" value="" style="shape=flexArrow;endArrow=classic;html=1;rounded=0;labelBackgroundColor=default;fontSize=10;fontColor=default;strokeColor=default;startArrow=block;" parent="1" edge="1">
          <mxGeometry width="50" height="50" relative="1" as="geometry">
            <mxPoint x="240" y="268" as="sourcePoint" />
            <mxPoint x="360" y="268" as="targetPoint" />
          </mxGeometry>
        </mxCell>
        <mxCell id="NNB8sEWWrY6CStLD5kaY-32" value="" style="endArrow=classic;html=1;rounded=0;labelBackgroundColor=default;fontSize=10;fontColor=default;strokeColor=default;fillColor=default;" parent="1" edge="1">
          <mxGeometry width="50" height="50" relative="1" as="geometry">
            <mxPoint x="520" y="222.07999999999993" as="sourcePoint" />
            <mxPoint x="480" y="222.07999999999993" as="targetPoint" />
          </mxGeometry>
        </mxCell>
        <mxCell id="NNB8sEWWrY6CStLD5kaY-33" value="" style="endArrow=classic;html=1;rounded=0;labelBackgroundColor=default;fontSize=10;fontColor=default;strokeColor=default;fillColor=default;" parent="1" edge="1">
          <mxGeometry width="50" height="50" relative="1" as="geometry">
            <mxPoint x="520" y="173.24999999999994" as="sourcePoint" />
            <mxPoint x="480" y="173.24999999999994" as="targetPoint" />
          </mxGeometry>
        </mxCell>
        <mxCell id="NNB8sEWWrY6CStLD5kaY-34" value="" style="endArrow=classic;html=1;rounded=0;labelBackgroundColor=default;fontSize=10;fontColor=default;strokeColor=default;entryX=0.986;entryY=0.415;entryDx=0;entryDy=0;entryPerimeter=0;" parent="1" edge="1">
          <mxGeometry width="50" height="50" relative="1" as="geometry">
            <mxPoint x="450" y="202" as="sourcePoint" />
            <mxPoint x="410.15999999999985" y="202.20000000000005" as="targetPoint" />
          </mxGeometry>
        </mxCell>
        <mxCell id="NNB8sEWWrY6CStLD5kaY-43" value="default subscriptor" style="rounded=0;whiteSpace=wrap;html=1;labelBackgroundColor=none;fontSize=9;fontColor=default;strokeColor=default;fillColor=#00BEF2;align=center;verticalAlign=middle;" parent="1" vertex="1">
          <mxGeometry x="261" y="77.5" width="60" height="38" as="geometry" />
        </mxCell>
        <mxCell id="NNB8sEWWrY6CStLD5kaY-44" value="" style="endArrow=classic;html=1;rounded=0;labelBackgroundColor=default;fontSize=10;fontColor=default;strokeColor=default;fillColor=default;entryX=0;entryY=0.5;entryDx=0;entryDy=0;" parent="1" target="NNB8sEWWrY6CStLD5kaY-43" edge="1">
          <mxGeometry width="50" height="50" relative="1" as="geometry">
            <mxPoint x="220" y="145.5" as="sourcePoint" />
            <mxPoint x="250" y="95.5" as="targetPoint" />
          </mxGeometry>
        </mxCell>
        <mxCell id="NNB8sEWWrY6CStLD5kaY-45" value="" style="endArrow=classic;html=1;rounded=0;labelBackgroundColor=default;fontSize=10;fontColor=default;strokeColor=default;fillColor=default;" parent="1" edge="1">
          <mxGeometry width="50" height="50" relative="1" as="geometry">
            <mxPoint x="321" y="96.21" as="sourcePoint" />
            <mxPoint x="351" y="96.21" as="targetPoint" />
          </mxGeometry>
        </mxCell>
        <mxCell id="NNB8sEWWrY6CStLD5kaY-46" value="transformation subscriptors" style="rounded=0;whiteSpace=wrap;html=1;labelBackgroundColor=none;fontSize=9;strokeColor=#d6b656;fillColor=#fff2cc;align=center;verticalAlign=middle;fontColor=default;" parent="1" vertex="1">
          <mxGeometry x="261" y="183.5" width="60" height="38" as="geometry" />
        </mxCell>
        <mxCell id="NNB8sEWWrY6CStLD5kaY-47" value="" style="endArrow=classic;html=1;rounded=0;labelBackgroundColor=default;fontSize=10;fontColor=default;strokeColor=default;fillColor=default;" parent="1" edge="1">
          <mxGeometry width="50" height="50" relative="1" as="geometry">
            <mxPoint x="321" y="202.50000000000006" as="sourcePoint" />
            <mxPoint x="350" y="203" as="targetPoint" />
          </mxGeometry>
        </mxCell>
        <mxCell id="NNB8sEWWrY6CStLD5kaY-18" value="Data Access Layer" style="rounded=0;whiteSpace=wrap;html=1;fontSize=10;fontColor=default;strokeColor=default;fillColor=#00BEF2;verticalAlign=middle;" parent="1" vertex="1">
          <mxGeometry x="430" y="160" width="50" height="80" as="geometry" />
        </mxCell>
        <mxCell id="NNB8sEWWrY6CStLD5kaY-28" value="consumer 1" style="rounded=0;whiteSpace=wrap;html=1;labelBackgroundColor=default;fontSize=10;fontColor=default;strokeColor=default;fillColor=default;align=center;" parent="1" vertex="1">
          <mxGeometry x="500" y="163.5" width="80" height="20" as="geometry" />
        </mxCell>
        <mxCell id="NNB8sEWWrY6CStLD5kaY-29" value="consumer n" style="rounded=0;whiteSpace=wrap;html=1;labelBackgroundColor=default;fontSize=10;fontColor=default;strokeColor=default;fillColor=default;align=center;" parent="1" vertex="1">
          <mxGeometry x="500" y="210" width="80" height="20" as="geometry" />
        </mxCell>
      </root>
    </mxGraphModel>
  </diagram>
</mxfile>
